lec12_34246
…
Set Up the Notebook

In[24]:

from datascience import *
import numpy as np
%matplotlib inline
import matplotlib.pyplot as plots
plots.style.use('fivethirtyeight')

Table Examples

Demo: Billionaires

Source: https://www.forbes.com/billionaires/ (April 2022)

Load the billionairs.csv (April 2022) data and visualize the distribution of 'citizenship' and 'industry'. Note that networth is in millions of dollars.

In[25]:

billionaires = Table.read_table('./data/billionaires.csv')
billionaires

    Out[25]:

            name networth citizenship industry

            Elon Musk                219000   United States Automotive           

            Jeff Bezos               171000   United States Technology           

            Bernard Arnault & family 158000   France        Fashion & Retail     

            Bill Gates               129000   United States Technology           

            Warren Buffett           118000   United States Finance & Investments

            Larry Page               111000   United States Technology           

            Sergey Brin              107000   United States Technology           

            Larry Ellison            106000   United States Technology           

            Steve Ballmer            91400    United States Technology           

            Mukesh Ambani            90700    India         Diversified          

... (2658 rows omitted)
…
            Continent Automotive Construction & Engineering Diversified Energy Fashion & Retail Finance & Investments Food & Beverage Gambling & Casinos Healthcare Logistics Manufacturing Media & Entertainment Metals & Mining Real Estate Service Sports Technology Telecom

            Africa        0          1                          7           0      2                2                     1               0                  0          0         1             1                     2               0           0       0      0          2      

            Asia          36         16                         90          31     71               54                    80              7                  116        17        221           25                    23              99          18      0      134        18     

            Europe        14         16                         36          7      90               72                    34              7                  54         8         60            15                    11              22          14      2      31         6      

            North America 16         7                          20          35     64               213                   72              7                  33         6         33            47                    5               56          19      25     151        7      

            Oceania       1          0                          1           0      5                6                     2               1                  0          1         4             3                     8               8           0       0      8          1      

            South America 0          0                          15          4      8                24                    9               0                  9          0         5             3                     3               2           0       0      3          0      

Source: https://developers.google.com/public-data/docs/canonical/countries_csv

In[35]:

# grabbing latitude and longitude info

geo = Table.read_table('data/countires_geo.csv')
geo

    Out[35]:

            country latitude longitude name

            AD      42.5462  1.60155   Andorra             

            AE      23.4241  53.8478   United Arab Emirates

            AF      33.9391  67.71     Afghanistan         

            AG      17.0608  -61.7964  Antigua and Barbuda 

            AI      18.2206  -63.0686  Anguilla            

            AL      41.1533  20.1683   Albania             

            AM      40.0691  45.0382   Armenia             

            AN      12.2261  -69.0601  Netherlands Antilles

            AO      -11.2027 17.8739   Angola              

            AQ      -75.251  -0.071389 Antarctica          

... (235 rows omitted)
…
